Sequential Circuits/Counters/Synchronous Counters/sync_counter_out.vcd
$date
	Fri Oct 03 12:34:25 2025
$end
$version
	Icarus Verilog
$end
$timescale
	1s
$end
$scope module tb_sync_up_down_counter $end
$var wire 4 ! q [3:0] $end
$var reg 1 " clk $end
$var reg 1 # reset $end
$var reg 1 $ up_down $end
$scope module uut $end
$var wire 1 % clk $end
$var wire 4 & q [3:0] $end
$var wire 1 ' q0 $end
$var wire 1 ( q1 $end
$var wire 1 ) q2 $end
$var wire 1 * q3 $end
$var wire 1 + reset $end
$var wire 1 , t0 $end
$var wire 1 - t1 $end
$var wire 1 . t2 $end
$var wire 1 / t3 $end
$var wire 1 0 up_down $end
$scope module ff0 $end
$var wire 1 , T $end
$var wire 1 % clk $end
$var wire 1 + reset $end
$var reg 1 1 q $end
$upscope $end
$scope module ff1 $end
$var wire 1 - T $end
$var wire 1 % clk $end
$var wire 1 + reset $end
$var reg 1 2 q $end
$upscope $end
$scope module ff2 $end
$var wire 1 . T $end
$var wire 1 % clk $end
$var wire 1 + reset $end
$var reg 1 3 q $end
$upscope $end
$scope module ff3 $end
$var wire 1 / T $end
$var wire 1 % clk $end
$var wire 1 + reset $end
$var reg 1 4 q $end
$upscope $end
$upscope $end
$upscope $end
$enddefinitions $end
#0
$dumpvars
04
03
02
01
10
0/
0.
0-
1,
1+
0*
0)
0(
0'
b0 &
0%
1$
1#
0"
b0 !
$end
#5
1"
1%
#10
0"
0%
0#
0+
#15
1-
11
b1 !
b1 &
1'
1"
1%
#20
0"
0%
#25
0-
12
1(
01
b10 !
b10 &
0'
1"
1%
#30
0"
0%
#35
1.
1-
11
b11 !
b11 &
1'
1"
1%
#40
0"
0%
#45
0.
0-
13
1)
02
0(
01
b100 !
b100 &
0'
1"
1%
#50
0"
0%
#55
1-
11
b101 !
b101 &
1'
1"
1%
#60
0"
0%
#65
0-
12
1(
01
b110 !
b110 &
0'
1"
1%
#70
0"
0%
#75
1/
1.
1-
11
b111 !
b111 &
1'
1"
1%
#80
0"
0%
#85
0/
0.
0-
14
1*
03
0)
02
0(
01
b1000 !
b1000 &
0'
1"
1%
#90
0"
0%
#95
1-
11
b1001 !
b1001 &
1'
1"
1%
#100
0"
0%
#105
0-
12
1(
01
b1010 !
b1010 &
0'
1"
1%
#110
1.
0"
0%
0$
00
#115
0.
1-
11
1'
13
b1111 !
b1111 &
1)
1"
1%
#120
0"
0%
#125
1/
0-
02
0(
01
b1100 !
b1100 &
0'
1"
1%
#130
0"
0%
#135
0/
1-
11
1'
04
b101 !
b101 &
0*
1"
1%
#140
0"
0%
#145
1.
0-
12
1(
01
b110 !
b110 &
0'
1"
1%
#150
0"
0%
#155
0.
1-
11
1'
03
b11 !
b11 &
0)
1"
1%
#160
0"
0%
#165
0-
02
0(
01
b0 !
b0 &
0'
1"
1%
#170
0"
0%
#175
1-
11
b1 !
b1 &
1'
1"
1%
#180
0"
0%
#185
1.
0-
12
1(
01
b10 !
b10 &
0'
1"
1%
#190
0"
0%
#195
0.
1-
11
1'
13
b111 !
b111 &
1)
1"
1%
#200
0"
0%
#205
1/
0-
02
0(
01
b100 !
b100 &
0'
1"
1%
